Day 20 - 10/04/2024
…
dd_soil <- readxl::read_xlsx("data/1.Site_Characterization.xlsx", sheet = 2) %>% 
  filter(Year == 2014, 
         State == "IA", 
         Site == "Ames", 
         Horizon == "Ap") %>% 
  mutate(Block = as.numeric(Block), 
         across(Clay:WC, ~as.numeric(.)))
dd_N <- readxl::read_xlsx("data/4.SoilN.xlsx", sheet = 2) %>% 
  filter(Year == 2014, 
         State == "IA", 
         Site == "Ames") %>% 
  mutate(across(c(Plot_ID, N_Trt, Plant_N, Side_N, Plant_N_SI, Side_N_SI), ~as.numeric(.)))
dd_N

# A tibble: 100 × 17
    Year State Site  Site_Prod Sam_Time Plot_ID Block N_Trt Plant_N Side_N
   <dbl> <chr> <chr> <chr>     <chr>      <dbl> <dbl> <dbl>   <dbl>  <dbl>
 1  2014 IA    Ames  Low       Post         101     1     2      40      0
 2  2014 IA    Ames  Low       Post         102     1     3      80      0
 3  2014 IA    Ames  Low       Post         103     1     9      40     40
 4  2014 IA    Ames  Low       Post         104     1    14      40    240
 5  2014 IA    Ames  Low       Post         105     1    16      80    160
 6  2014 IA    Ames  Low       Post         106     1    13      40    200
 7  2014 IA    Ames  Low       Post         107     1    10      40     80
 8  2014 IA    Ames  Low       Post         108     1     5     160      0
 9  2014 IA    Ames  Low       Post         109     1     1       0      0
10  2014 IA    Ames  Low       Post         110     1     4     120      0
# ℹ 90 more rows
# ℹ 7 more variables: Plant_N_SI <dbl>, Side_N_SI <dbl>, Nitrate1 <chr>,
#   Nitrate2 <chr>, Nitrate3 <chr>, Ammonium1 <chr>, Comment <chr>
…
dd_soil <- readxl::read_xlsx("data/1.Site_Characterization.xlsx", sheet = 2) %>% 
  filter(Year == 2014, 
         State == "IA", 
         Site == "MasonCity", 
         Horizon == "Ap") %>% 
  mutate(Block = as.numeric(Block), 
         across(Clay:WC, ~as.numeric(.)))
dd_N <- readxl::read_xlsx("data/4.SoilN.xlsx", sheet = 2) %>% 
  filter(Year == 2014, 
         State == "IA", 
         Site == "MasonCity") %>% 
  mutate(across(c(Plot_ID, N_Trt, Plant_N, Side_N, Plant_N_SI, Side_N_SI), ~as.numeric(.)))
dd_N

# A tibble: 100 × 17
    Year State Site      Site_Prod Sam_Time Plot_ID Block N_Trt Plant_N Side_N
   <dbl> <chr> <chr>     <chr>     <chr>      <dbl> <dbl> <dbl>   <dbl>  <dbl>
 1  2014 IA    MasonCity High      Post         101     1     2      40      0
 2  2014 IA    MasonCity High      Post         102     1     3      80      0
 3  2014 IA    MasonCity High      Post         103     1     9      40     40
 4  2014 IA    MasonCity High      Post         104     1    14      40    240
 5  2014 IA    MasonCity High      Post         105     1    16      80    160
 6  2014 IA    MasonCity High      Post         106     1    13      40    200
 7  2014 IA    MasonCity High      Post         107     1    10      40     80
 8  2014 IA    MasonCity High      Post         108     1     5     160      0
 9  2014 IA    MasonCity High      Post         109     1     1       0      0
10  2014 IA    MasonCity High      Post         110     1     4     120      0
# ℹ 90 more rows
# ℹ 7 more variables: Plant_N_SI <dbl>, Side_N_SI <dbl>, Nitrate1 <chr>,
#   Nitrate2 <chr>, Nitrate3 <chr>, Ammonium1 <chr>, Comment <chr>
…
